{
  "success": true,
  "timestamp": 1641816543,
  "base": "EUR",
  "date": "2022-01-11",
  "rates": {
    "AED": 4.16109,
    "AFN": 118.495,
    "ALL": 121.259751,
    "AMD": 547.140104,
    "ANG": 2.033439,
    "AOA": 624.140159,
    "ARS": 117.005778,
    "AUD": 1.575262,
    "AWG": 2.039766,
    "AZN": 1.935301,
    "BAM": 1.952123,
    "BBD": 2.278174,
    "BDT": 96.960291,
    "BGN": 1.956448,
    "BHD": 0.427171,
    "BIF": 2251.074469,
    "BMD": 1.132889,
    "BND": 1.53361,
    "BOB": 7.767597,
    "BRL": 6.388697,
    "BSD": 1.128258,
    "BTC": 0.000027285164,
    "BTN": 83.832678,
    "BWP": 13.158015,
    "BYN": 2.920854,
    "BYR": 22204.621638,
    "BZD": 2.274282,
    "CAD": 1.431331,
    "CDF": 2273.708137,
    "CHF": 1.04449,
    "CLF": 0.033985,
    "CLP": 937.567498,
    "CNY": 7.21911,
    "COP": 4548.23156,
    "CRC": 724.56419,
    "CUC": 1.132889,
    "CUP": 30.021555,
    "CVE": 110.04536,
    "CZK": 24.359408,
    "DJF": 200.868589,
    "DKK": 7.439613,
    "DOP": 64.73009,
    "DZD": 158.16037,
    "EGP": 17.79576,
    "ERN": 16.993421,
    "ETB": 55.974914,
    "EUR": 1,
    "FJD": 2.412997,
    "FKP": 0.854628,
    "GBP": 0.833801,
    "GEL": 3.506258,
    "GGP": 0.854628,
    "GHS": 6.977274,
    "GIP": 0.854628,
    "GMD": 59.80529,
    "GNF": 10302.156593,
    "GTQ": 8.709616,
    "GYD": 236.038888,
    "HKD": 8.831192,
    "HNL": 27.703397,
    "HRK": 7.527144,
    "HTG": 112.81375,
    "HUF": 358.037066,
    "IDR": 16181.221507,
    "ILS": 3.527408,
    "IMP": 0.854628,
    "INR": 83.874276,
    "IQD": 1646.783071,
    "IRR": 47864.554082,
    "ISK": 146.233019,
    "JEP": 0.854628,
    "JMD": 174.249134,
    "JOD": 0.803188,
    "JPY": 130.591489,
    "KES": 128.359629,
    "KGS": 96.067749,
    "KHR": 4598.134305,
    "KMF": 491.110233,
    "KPW": 1019.599885,
    "KRW": 1355.67712,
    "KWD": 0.342767,
    "KYD": 0.940215,
    "KZT": 491.317082,
    "LAK": 12693.397647,
    "LBP": 1706.260136,
    "LKR": 228.903356,
    "LRD": 166.676323,
    "LSL": 17.718495,
    "LTL": 3.345127,
    "LVL": 0.685273,
    "LYD": 5.189446,
    "MAD": 10.474793,
    "MDL": 20.179585,
    "MGA": 4487.808503,
    "MKD": 61.640276,
    "MMK": 2006.113371,
    "MNT": 3238.232128,
    "MOP": 9.064688,
    "MRO": 404.441128,
    "MUR": 49.677358,
    "MVR": 17.503041,
    "MWK": 921.141926,
    "MXN": 23.075496,
    "MYR": 4.761103,
    "MZN": 72.312578,
    "NAD": 17.712772,
    "NGN": 468.447025,
    "NIO": 39.950316,
    "NOK": 10.005561,
    "NPR": 134.145284,
    "NZD": 1.674008,
    "OMR": 0.436173,
    "PAB": 1.128148,
    "PEN": 4.479295,
    "PGK": 3.962476,
    "PHP": 58.202149,
    "PKR": 199.257348,
    "PLN": 4.534556,
    "PYG": 7846.401173,
    "QAR": 4.12488,
    "RON": 4.945291,
    "RSD": 117.5793,
    "RUB": 85.008015,
    "RWF": 1170.776917,
    "SAR": 4.251952,
    "SBD": 9.162099,
    "SCR": 15.840048,
    "SDG": 495.642495,
    "SEK": 10.296475,
    "SGD": 1.534606,
    "SHP": 1.560439,
    "SLL": 12841.295272,
    "SOS": 661.606894,
    "SRD": 24.094268,
    "STD": 23448.512089,
    "SVC": 9.872254,
    "SYP": 2846.375082,
    "SZL": 17.624035,
    "THB": 38.048064,
    "TJS": 12.742866,
    "TMT": 3.965111,
    "TND": 3.263881,
    "TOP": 2.587461,
    "TRY": 15.730179,
    "TTD": 7.658558,
    "TWD": 31.340805,
    "TZS": 2605.644228,
    "UAH": 31.022893,
    "UGX": 3999.417534,
    "USD": 1.132889,
    "UYU": 50.481244,
    "UZS": 12205.983155,
    "VEF": 242245876619.18832,
    "VND": 25716.577101,
    "VUV": 128.302669,
    "WST": 2.945705,
    "XAF": 654.713823,
    "XAG": 0.050448,
    "XAU": 0.000629,
    "XCD": 3.061689,
    "XDR": 0.806868,
    "XOF": 654.713823,
    "XPF": 119.54805,
    "YER": 283.505859,
    "ZAR": 17.679523,
    "ZMK": 10197.351314,
    "ZMW": 19.017489,
    "ZWL": 364.78975
  }
}
